Google Data Analytics Capstone | Case Study 2
…
* 3 observations of > 25,000 steps with > 750 sedentary minutes.

Deduced that outliers could be due to natural variation of data, change in users usage or errors in data collection (ie. miscalculations, data contamination or human error).

5.5 PERCENTAGE OF ACTIVITY IN MINUTES

* Summary Data

active_minutes_summary <- daily_activity %>% 
  group_by(Id) %>%
  summarize(avg_very_act_min=mean(VeryActiveMinutes), avg_mod_act_min=mean(FairlyActiveMinutes), avg_light_act_min=mean(LightlyActiveMinutes), avg_sed_min=mean(SedentaryMinutes))
print(active_minutes_summary)

## # A tibble: 33 x 5
##            Id avg_very_act_min avg_mod_act_min avg_light_act_min avg_sed_min
##         <dbl>            <dbl>           <dbl>             <dbl>       <dbl>
##  1 1503960366          38.7             19.2               220.         848.
##  2 1624580081           8.68             5.81              153.        1258.
##  3 1644430081           9.57            21.4               178.        1162.
##  4 1844505072           0.129            1.29              115.        1207.
##  5 1927972279           1.32             0.774              38.6       1317.
##  6 2022484408          36.3             19.4               257.        1113.
##  7 2026352035           0.0968           0.258             257.         689.
##  8 2320127002           1.35             2.58              198.        1220.
##  9 2347167796          13.5             20.6               252.         687.
## 10 2873212765          14.1              6.13              308         1097.
## # ... with 23 more rows
…
